CookerStat, GenerateAssetRegistry=0.029452, Initialize=0.128958, RunGuid=RunID7798658241C612869858DDB85108A341
DDCTransactionId4C003185493ED0AB12BFA2BFF10D58C0_0, BuildTexture=, CacheKey=TEXTURE_814DCC3DC72143F49509781513CB9855_AutoDXT_590495564DFD44E533B1B9A17E585F83_07_0000803F0000803F0000803F000000000000803F00000000000000000000803F0000000000000000020000000D000300000000000101000000040000803FFFFFFFFF00000000FF00FF00FFFF8180803B, StartTime=2016.04.23-23.42.55, Duration=124.333786, RunGuid=RunID7798658241C612869858DDB85108A341
DDCTransactionIdA8D798C74E6F67E8623BBDAB72D74180_0, PutCachedData=, CacheKey=TEXTURE_814DCC3DC72143F49509781513CB9855_AutoDXT_590495564DFD44E533B1B9A17E585__8E7A4556B9A12C32E86915204D5B34C381E5B8ED, StartTime=2016.04.23-23.42.55, HierarchicalDDC=, DataSize=33078, Duration=4.339550, RunGuid=RunID7798658241C612869858DDB85108A341
DDCTransactionId4C003185493ED0AB12BFA2BFF10D58C0_1, BuildTexture=, CacheKey=TEXTURE_814DCC3DC72143F49509781513CB9855_AutoDXT_E540CA9449D615A2424FC7A7737E4260_07_0000803F0000803F0000803F000000000000803F00000000000000000000803F0000000000000000020000000D000300000000000101000000040000803FFFFFFFFF00000000FF00FF00FFFF8180803B, StartTime=2016.04.23-23.43.54, Duration=5.402461, RunGuid=RunID7798658241C612869858DDB85108A341
DDCTransactionIdA8D798C74E6F67E8623BBDAB72D74180_1, PutCachedData=, CacheKey=TEXTURE_814DCC3DC72143F49509781513CB9855_AutoDXT_E540CA9449D615A2424FC7A7737E4__A5956504C698FC748609DED9C27ADDF9525BDABB, StartTime=2016.04.23-23.43.54, HierarchicalDDC=, DataSize=33078, Duration=1.918323, RunGuid=RunID7798658241C612869858DDB85108A341
SavePackageTransactionId50263772469C92CFC81F58B5D06414F0_0, Filename=../../../../../AProject/Unreal/CC/Content/UI/MY.uasset, AutoPackageBackupDelegate=1.039706, FlushAsyncLoading=0.008032, FlushStreamingFunc=0.116020, BlockTillAllRequestsFinished=0.007138, ResetLoadersForSaveUnMarkAllObjects=0.316821, TagPackageExports=0.023652, BeginCacheForCookedPlatformData=0.001784, SerializeImports=0.401605, GatherLocalizableTextData=0.154391, MarkNames=0.008035, SerializeSummary=0.015616, SerializeNames=0.029452, SerializeGatherableTextData=0.001337, BuildExportMap=0.020526, SortExportsNonSeekfree=0.006694, SortExportsSeekfreeConstructor=0.072733, SortExportsSeekfreeInner=0.237394, SortExportsSeekfree=0.003569, BuildDependencyMap=0.009816, SerializeImportMap=0.009369, SerializeExportMap=0.004910, SerializeDependencyMap=0.001337, SerializeStringAssetReferenceMap=0.001788, SaveThumbNailsAssetRegistryDataWorldLevelInfo=0.027217, SerializeExports=0.196788, SerializeBulkData=0.014279, MoveFile=0.703253, UnaccountedTime=0.696558, RunGuid=RunID7798658241C612869858DDB85108A341
DDCTransactionId4C003185493ED0AB12BFA2BFF10D58C0_2, BuildTexture=, CacheKey=TEXTURE_814DCC3DC72143F49509781513CB9855_AutoDXT_3C641FC1400D40C709DD2E9F9EFA2645_07_0000803F0000803F0000803F000000000000803F00000000000000000000803F00000000000000000200000001000300000000000101000000040000803FFFFFFFFF00000000FF00FF00FFFF8180803B, StartTime=2016.04.23-23.44.14, Duration=15.937414, RunGuid=RunID7798658241C612869858DDB85108A341
DDCTransactionIdD86E0F704EDC8B11CA0F2A8FAF22FBC3_0, PutCachedData=, CacheKey=TEXTURE_814DCC3DC72143F49509781513CB9855_AutoDXT_3C641FC1400D40C709DD2E9F9EFA2__E69347A428A7C4A3D1F760A70AE172A683AF3F17, StartTime=2016.04.23-23.44.14, HierarchicalDDC=, DataSize=65799, Duration=1.989275, RunGuid=RunID7798658241C612869858DDB85108A341
DDCTransactionId33056FB44E4400BF9D28F49ABB81F301_0, PutCachedData=, CacheKey=TEXTURE_814DCC3DC72143F49509781513CB9855_AutoDXT_3C641FC1400D40C709DD2E9F9EFA2__FD1C38496849FAE609800A89E176BCE4B926FB80, StartTime=2016.04.23-23.44.14, HierarchicalDDC=, DataSize=16647, Duration=1.977228, RunGuid=RunID7798658241C612869858DDB85108A341
DDCTransactionIdA8D798C74E6F67E8623BBDAB72D74180_2, PutCachedData=, CacheKey=TEXTURE_814DCC3DC72143F49509781513CB9855_AutoDXT_3C641FC1400D40C709DD2E9F9EFA2__40E1C249001AB82B5963233270FF2CAB3760EE4B, StartTime=2016.04.23-23.44.14, HierarchicalDDC=, DataSize=6604, Duration=2.162859, RunGuid=RunID7798658241C612869858DDB85108A341
SavePackageTransactionId50263772469C92CFC81F58B5D06414F0_1, Filename=../../../../../AProject/Unreal/CC/Content/UI/MY.uasset, AutoPackageBackupDelegate=0.503343, FlushAsyncLoading=0.003569, FlushStreamingFunc=0.103079, BlockTillAllRequestsFinished=0.007588, ResetLoadersForSaveUnMarkAllObjects=0.170458, TagPackageExports=0.024542, BeginCacheForCookedPlatformData=0.002231, SerializeImports=0.476126, GatherLocalizableTextData=0.201248, MarkNames=0.009816, SerializeSummary=0.012495, SerializeNames=0.037037, SerializeGatherableTextData=0.002231, BuildExportMap=0.024989, SortExportsNonSeekfree=0.005800, SortExportsSeekfreeConstructor=0.010710, SortExportsSeekfreeInner=0.486385, SortExportsSeekfree=0.004463, BuildDependencyMap=0.009369, SerializeImportMap=0.008032, SerializeExportMap=0.006694, SerializeDependencyMap=0.001337, SerializeStringAssetReferenceMap=0.001784, SaveThumbNailsAssetRegistryDataWorldLevelInfo=0.023652, SerializeExports=0.255689, SerializeBulkData=0.006691, MoveFile=0.883974, UnaccountedTime=0.889774, RunGuid=RunID7798658241C612869858DDB85108A341
SavePackageTransactionId50263772469C92CFC81F58B5D06414F0_2, Filename=../../../../../AProject/Unreal/CC/Content/UI/MY.uasset, AutoPackageBackupDelegate=0.354305, FlushAsyncLoading=0.003126, FlushStreamingFunc=0.097722, BlockTillAllRequestsFinished=0.005800, ResetLoadersForSaveUnMarkAllObjects=0.136994, TagPackageExports=0.018738, BeginCacheForCookedPlatformData=0.001341, SerializeImports=0.374828, GatherLocalizableTextData=0.144579, MarkNames=0.005800, SerializeSummary=0.010710, SerializeNames=0.030790, SerializeGatherableTextData=0.001337, BuildExportMap=0.020083, SortExportsNonSeekfree=0.004463, SortExportsSeekfreeConstructor=0.008475, SortExportsSeekfreeInner=0.365015, SortExportsSeekfree=0.002675, BuildDependencyMap=0.008035, SerializeImportMap=0.006694, SerializeExportMap=0.004910, SerializeDependencyMap=0.000894, SerializeStringAssetReferenceMap=0.001784, SaveThumbNailsAssetRegistryDataWorldLevelInfo=0.019185, SerializeExports=0.241410, SerializeBulkData=0.005353, MoveFile=0.683617, UnaccountedTime=0.662200, RunGuid=RunID7798658241C612869858DDB85108A341
SavePackageTransactionId50263772469C92CFC81F58B5D06414F0_3, Filename=../../../../../AProject/Unreal/CC/Content/2.uasset, AutoPackageBackupDelegate=0.114679, FlushAsyncLoading=0.004910, FlushStreamingFunc=0.103522, BlockTillAllRequestsFinished=0.006694, ResetLoadersForSaveUnMarkAllObjects=0.197679, TagPackageExports=0.078090, BeginCacheForCookedPlatformData=0.001784, SerializeImports=0.467200, GatherLocalizableTextData=0.946447, MarkNames=0.007138, SerializeSummary=0.017405, SerializeNames=0.041053, SerializeGatherableTextData=0.001784, BuildExportMap=0.014726, SortExportsNonSeekfree=0.006691, SortExportsSeekfreeConstructor=0.077199, SortExportsSeekfreeInner=0.276659, SortExportsSeekfree=0.003569, BuildDependencyMap=0.008035, SerializeImportMap=0.008035, SerializeExportMap=0.006691, SerializeDependencyMap=0.001341, SerializeStringAssetReferenceMap=0.002231, SaveThumbNailsAssetRegistryDataWorldLevelInfo=1.943313, SerializeExports=0.244532, SerializeBulkData=0.049084, MoveFile=0.718873, UnaccountedTime=0.921007, RunGuid=RunID7798658241C612869858DDB85108A341
SavePackageTransactionId50263772469C92CFC81F58B5D06414F0_4, Filename=../../../../../AProject/Unreal/CC/Content/NewFont.uasset, AutoPackageBackupDelegate=0.075415, FlushAsyncLoading=0.004016, FlushStreamingFunc=0.046406, BlockTillAllRequestsFinished=0.004910, ResetLoadersForSaveUnMarkAllObjects=0.132080, TagPackageExports=0.084784, BeginCacheForCookedPlatformData=0.001784, SerializeImports=0.503790, GatherLocalizableTextData=0.923689, MarkNames=0.007585, SerializeSummary=0.016510, SerializeNames=0.035699, SerializeGatherableTextData=0.001337, BuildExportMap=0.015616, SortExportsNonSeekfree=0.005804, SortExportsSeekfreeConstructor=0.010263, SortExportsSeekfreeInner=0.276212, SortExportsSeekfree=0.004463, BuildDependencyMap=0.008479, SerializeImportMap=0.008032, SerializeExportMap=0.006691, SerializeDependencyMap=0.000894, SerializeStringAssetReferenceMap=0.001784, SaveThumbNailsAssetRegistryDataWorldLevelInfo=1.957595, SerializeExports=0.255238, SerializeBulkData=0.049088, MoveFile=0.745200, UnaccountedTime=0.745196, RunGuid=RunID7798658241C612869858DDB85108A341
SavePackageTransactionId50263772469C92CFC81F58B5D06414F0_5, Filename=../../../../../AProject/Unreal/CC/Content/NewTexture2D.uasset, AutoPackageBackupDelegate=0.136990, FlushAsyncLoading=0.004016, FlushStreamingFunc=0.095047, BlockTillAllRequestsFinished=0.006247, ResetLoadersForSaveUnMarkAllObjects=0.181168, TagPackageExports=0.019632, BeginCacheForCookedPlatformData=0.001341, SerializeImports=0.375722, GatherLocalizableTextData=0.056226, MarkNames=0.004906, SerializeSummary=0.010263, SerializeNames=0.020526, SerializeGatherableTextData=0.001784, BuildExportMap=0.012051, SortExportsNonSeekfree=0.004906, SortExportsSeekfreeConstructor=0.008479, SortExportsSeekfreeInner=0.137884, SortExportsSeekfree=0.003126, BuildDependencyMap=0.005353, SerializeImportMap=0.013385, SerializeExportMap=0.006694, SerializeDependencyMap=0.001337, SerializeStringAssetReferenceMap=0.001341, SaveThumbNailsAssetRegistryDataWorldLevelInfo=2.452459, SerializeExports=0.243638, SerializeBulkData=58.081245, MoveFile=0.748768, UnaccountedTime=0.750553, RunGuid=RunID7798658241C612869858DDB85108A341
